{
  "project_info": {
    "project_number": "424741222426",
    "firebase_url": "https://snapmatdelivery.firebaseio.com",
    "project_id": "snapmatdelivery",
    "storage_bucket": "snapmatdelivery.appspot.com"
  },
  "client": [
    {
      "client_info": {
        "mobilesdk_app_id": "1:424741222426:android:90f9197105a74c2f",
        "android_client_info": {
          "package_name": "com.enge.deliveryapp"
        }
      },
      "oauth_client": [
        {
          "client_id": "424741222426-ni8qhhg8j40nd914mipmfcrk98tr9mc3.apps.googleusercontent.com",
          "client_type": 1,
          "android_info": {
            "package_name": "com.enge.deliveryapp",
            "certificate_hash": "2242344c640bb604675fba49541bf0462f07c4fe"
          }
        },
        {
          "client_id": "424741222426-bif30coniaamt7l0ru947mbrdbecamgu.apps.googleusercontent.com",
          "client_type": 3
        }
      ],
      "api_key": [
        {
          "current_key": "AIzaSyDCnXMtX1qWJp_ipm_aFD-fXRndz2cLLkU"
        }
      ],
      "services": {
        "appinvite_service": {
          "other_platform_oauth_client": [
            {
              "client_id": "424741222426-bif30coniaamt7l0ru947mbrdbecamgu.apps.googleusercontent.com",
              "client_type": 3
            },
            {
              "client_id": "424741222426-sujg2s1k5pogiom71vc0ng2pnfs4a8co.apps.googleusercontent.com",
              "client_type": 2,
              "ios_info": {
                "bundle_id": "com.project.SnapMatDelivery"
              }
            }
          ]
        }
      }
    }
  ],
  "configuration_version": "1"
}